waveform.vcd
$date
	Mon Mar 31 18:23:52 2025
$end
$version
	Icarus Verilog
$end
$timescale
	1ps
$end
$scope module pipeline_tb $end
$var reg 1 ! clk $end
$var reg 1 " rst $end
$scope module uut $end
$var wire 1 ! clk $end
$var wire 32 # ex_mem_alu_result [31:0] $end
$var wire 3 $ id_ex_ALUop [2:0] $end
$var wire 1 % id_ex_ALUsrc $end
$var wire 1 & id_ex_Branch $end
$var wire 1 ' id_ex_MemRead $end
$var wire 1 ( id_ex_MemToReg $end
$var wire 1 ) id_ex_MemWrite $end
$var wire 1 * id_ex_RegWrite $end
$var wire 32 + id_ex_pc [31:0] $end
$var wire 1 , mem_wb_MemToReg $end
$var wire 1 - mem_wb_RegWrite $end
$var wire 32 . mem_wb_alu_result [31:0] $end
$var wire 32 / mem_wb_mem_data [31:0] $end
$var wire 5 0 mem_wb_rd [4:0] $end
$var wire 1 " rst $end
$var wire 32 1 wb_write_data [31:0] $end
$var wire 1 2 stall $end
$var wire 32 3 if_pc [31:0] $end
$var wire 32 4 if_instruction [31:0] $end
$var wire 32 5 if_id_pc [31:0] $end
$var wire 32 6 if_id_instruction [31:0] $end
$var wire 5 7 id_ex_rs2 [4:0] $end
$var wire 5 8 id_ex_rs1 [4:0] $end
$var wire 32 9 id_ex_reg2 [31:0] $end
$var wire 32 : id_ex_reg1 [31:0] $end
$var wire 5 ; id_ex_rd [4:0] $end
$var wire 7 < id_ex_opcode [6:0] $end
$var wire 32 = id_ex_imm [31:0] $end
$var wire 7 > id_ex_func7 [6:0] $end
$var wire 3 ? id_ex_func3 [2:0] $end
$var wire 32 @ ex_mem_reg2 [31:0] $end
$var wire 5 A ex_mem_rd [4:0] $end
$var wire 1 B ex_mem_RegWrite $end
$var wire 1 C ex_mem_MemWrite $end
$var wire 1 D ex_mem_MemToReg $end
$var wire 1 E ex_mem_MemRead $end
$scope module EX_MEM $end
$var wire 32 F ALU_result_in [31:0] $end
$var wire 1 & Branch_in $end
$var wire 1 ' MemRead_in $end
$var wire 1 ( MemToReg_in $end
$var wire 1 ) MemWrite_in $end
$var wire 32 G PC_in [31:0] $end
$var wire 1 * RegWrite_in $end
$var wire 1 H Zero_in $end
$var wire 1 ! clk $end
$var wire 1 I flush $end
$var wire 1 " rst $end
$var wire 5 J rd_in [4:0] $end
$var wire 32 K RegReadData2_in [31:0] $end
$var reg 32 L ALU_result_out [31:0] $end
$var reg 1 M Branch_out $end
$var reg 1 E MemRead_out $end
$var reg 1 D MemToReg_out $end
$var reg 1 C MemWrite_out $end
$var reg 32 N PC_out [31:0] $end
$var reg 32 O RegReadData2_out [31:0] $end
$var reg 1 B RegWrite_out $end
$var reg 1 P Zero_out $end
$var reg 5 Q rd_out [4:0] $end
$upscope $end
$scope module EX_STAGE $end
$var wire 1 % ALUsrc $end
$var wire 32 R reg2 [31:0] $end
$var wire 32 S reg1 [31:0] $end
$var wire 32 T imm [31:0] $end
$var wire 7 U func7 [6:0] $end
$var wire 3 V func3 [2:0] $end
$var reg 32 W alu_result [31:0] $end
$var reg 32 X operand1 [31:0] $end
$var reg 32 Y operand2 [31:0] $end
$var reg 1 Z zero_flag $end
$upscope $end
$scope module HDU $end
$var wire 1 ' MemRead_EX $end
$var wire 5 [ ex_rd [4:0] $end
$var wire 5 \ rs2 [4:0] $end
$var wire 5 ] rs1 [4:0] $end
$var reg 1 2 stall $end
$upscope $end
$scope module ID_EX $end
$var wire 3 ^ ALUop [2:0] $end
$var wire 1 % ALUsrc $end
$var wire 1 & Branch $end
$var wire 1 ' MemRead $end
$var wire 1 ( MemToReg $end
$var wire 1 ) MemWrite $end
$var wire 32 _ PC_in [31:0] $end
$var wire 1 * RegWrite $end
$var wire 1 ! clk $end
$var wire 1 ` flush $end
$var wire 32 a instruction_in [31:0] $end
$var wire 1 " rst $end
$var wire 1 2 stall $end
$var wire 5 b rs2 [4:0] $end
$var wire 5 c rs1 [4:0] $end
$var wire 32 d reg_data2 [31:0] $end
$var wire 32 e reg_data1 [31:0] $end
$var wire 5 f rd [4:0] $end
$var wire 7 g opcode [6:0] $end
$var wire 32 h imm [31:0] $end
$var wire 7 i func7 [6:0] $end
$var wire 3 j func3 [2:0] $end
$var reg 3 k ALUop_out [2:0] $end
$var reg 1 l ALUsrc_out $end
$var reg 1 m Branch_out $end
$var reg 1 n MemRead_out $end
$var reg 1 o MemToReg_out $end
$var reg 1 p MemWrite_out $end
$var reg 32 q PC_out [31:0] $end
$var reg 1 r RegWrite_out $end
$var reg 3 s func3_out [2:0] $end
$var reg 7 t func7_out [6:0] $end
$var reg 32 u imm_out [31:0] $end
$var reg 32 v instruction_out [31:0] $end
$var reg 7 w opcode_out [6:0] $end
$var reg 5 x rd_out [4:0] $end
$var reg 32 y reg_data1_out [31:0] $end
$var reg 32 z reg_data2_out [31:0] $end
$var reg 5 { rs1_out [4:0] $end
$var reg 5 | rs2_out [4:0] $end
$upscope $end
$scope module ID_STAGE $end
$var wire 1 - RegWrite $end
$var wire 1 ! clk $end
$var wire 1 " rst $end
$var wire 5 } write_register [4:0] $end
$var wire 32 ~ write_data [31:0] $end
$var wire 32 !" instruction_in [31:0] $end
$var wire 32 "" PC_in [31:0] $end
$var reg 32 #" PC_out [31:0] $end
$var reg 3 $" func3 [2:0] $end
$var reg 7 %" func7 [6:0] $end
$var reg 32 &" imm_out [31:0] $end
$var reg 7 '" opcode [6:0] $end
$var reg 5 (" rd [4:0] $end
$var reg 32 )" read_data1 [31:0] $end
$var reg 32 *" read_data2 [31:0] $end
$var reg 5 +" rs1 [4:0] $end
$var reg 5 ," rs2 [4:0] $end
$var integer 32 -" i [31:0] $end
$upscope $end
$scope module IF_ID $end
$var wire 1 ! clk $end
$var wire 1 ." flush $end
$var wire 1 " rst $end
$var wire 1 2 stall $end
$var wire 32 /" instruction_in [31:0] $end
$var wire 32 0" PC_in [31:0] $end
$var reg 32 1" PC_out [31:0] $end
$var reg 32 2" instruction_out [31:0] $end
$upscope $end
$scope module IF_STAGE $end
$var wire 1 3" PCsrc $end
$var wire 1 4" PCwrite $end
$var wire 32 5" branch_target [31:0] $end
$var wire 1 ! clk $end
$var wire 32 6" pc [31:0] $end
$var wire 1 " rst $end
$var reg 32 7" PC [31:0] $end
$var reg 32 8" instruction [31:0] $end
$var reg 32 9" pc_plus_4 [31:0] $end
$upscope $end
$scope module MEM_STAGE $end
$var wire 32 :" ALU_result_in [31:0] $end
$var wire 1 E MemRead_in $end
$var wire 1 D MemToReg_in $end
$var wire 1 C MemWrite_in $end
$var wire 32 ;" PC_in [31:0] $end
$var wire 32 <" RegReadData2_in [31:0] $end
$var wire 1 B RegWrite_in $end
$var wire 1 ! clk $end
$var wire 5 =" rd_in [4:0] $end
$var wire 1 " rst $end
$var reg 32 >" ALU_result_out [31:0] $end
$var reg 32 ?" MemReadData_out [31:0] $end
$var reg 1 @" MemToReg_out $end
$var reg 32 A" PC_out [31:0] $end
$var reg 1 B" RegWrite_out $end
$var reg 5 C" rd_out [4:0] $end
$var integer 32 D" i [31:0] $end
$upscope $end
$scope module MEM_WB $end
$var wire 32 E" ALU_result_in [31:0] $end
$var wire 32 F" MemReadData_in [31:0] $end
$var wire 1 , MemToReg_in $end
$var wire 1 - RegWrite_in $end
$var wire 1 ! clk $end
$var wire 5 G" rd_in [4:0] $end
$var wire 1 " rst $end
$var reg 32 H" ALU_result_out [31:0] $end
$var reg 32 I" MemReadData_out [31:0] $end
$var reg 1 J" MemToReg_out $end
$var reg 1 K" RegWrite_out $end
$var reg 5 L" rd_out [4:0] $end
$upscope $end
$scope module WB_STAGE $end
$var wire 32 M" ALU_result [31:0] $end
$var wire 32 N" MemReadData [31:0] $end
$var wire 1 , MemToReg $end
$var wire 1 - RegWrite $end
$var wire 5 O" rd [4:0] $end
$var reg 32 P" WriteData [31:0] $end
$var reg 1 Q" WriteEnable $end
$var reg 5 R" WriteReg [4:0] $end
$upscope $end
$upscope $end
$upscope $end
$enddefinitions $end
$comment Show the parameter values. $end
$dumpall
$end
#0
$dumpvars
b0 R"
0Q"
b0 P"
b0 O"
b0 N"
b0 M"
b0 L"
0K"
0J"
b0 I"
b0 H"
b0 G"
b0 F"
b0 E"
b100000000 D"
b0 C"
0B"
b0 A"
0@"
b0 ?"
b0 >"
b0 ="
b0 <"
bz ;"
b0 :"
bx 9"
bx 8"
b0 7"
b0 6"
b0 5"
14"
03"
b0 2"
b0 1"
b0 0"
bx /"
0."
b100000 -"
b0 ,"
b0 +"
b0 *"
b0 )"
b0 ("
b0 '"
b0 &"
b0 %"
b0 $"
b0 #"
b0 ""
b0 !"
b0 ~
b0 }
b0 |
b0 {
b0 z
b0 y
b0 x
b0 w
b0 v
b0 u
b0 t
b0 s
0r
b0 q
0p
0o
0n
0m
0l
b0 k
b0 j
b0 i
b0 h
b0 g
b0 f
b0 e
b0 d
b0 c
b0 b
bz a
0`
b0 _
bz ^
b0 ]
b0 \
b0 [
1Z
b0 Y
b0 X
b0 W
b0 V
b0 U
b0 T
b0 S
b0 R
b0 Q
0P
b0 O
b0 N
0M
b0 L
b0 K
b0 J
0I
0H
b0 G
b0 F
0E
0D
0C
0B
b0 A
b0 @
b0 ?
b0 >
b0 =
b0 <
b0 ;
b0 :
b0 9
b0 8
b0 7
b0 6
b0 5
bx 4
b0 3
02
b0 1
b0 0
b0 /
b0 .
0-
0,
b0 +
z*
z)
z(
z'
z&
z%
bz $
b0 #
1"
0!
$end
#5000
b100 9"
b10011 4
b10011 /"
b10011 8"
1!
#10000
0!
#15000
b100 3
b100 0"
b100 6"
b100 7"
b10011 6
b10011 !"
b10011 2"
bz k
zm
zo
zl
zr
zp
zn
bz v
zM
zD
zB
zE
zC
bz A"
1!
0"
#20000
0!
#25000
z@"
zB"
b10011 <
b10011 g
b10011 '"
b100 5
b100 ""
b100 1"
b1000 3
b1000 0"
b1000 6"
b1000 7"
b1000 9"
b100000000000010010011 4
b100000000000010010011 /"
b100000000000010010011 8"
1!
#30000
0!
#35000
b1100 3
b1100 0"
b1100 6"
b1100 7"
b100000000000010010011 6
b100000000000010010011 !"
b100000000000010010011 2"
b1000 5
b1000 ""
b1000 1"
b0x00 +
b0x00 G
b0x00 _
b100 #"
b10011 w
b1100 9"
b1000000000000100010011 4
b1000000000000100010011 /"
b1000000000000100010011 8"
1!
#40000
0!
#45000
xZ
bx #
bx F
bx :"
bx W
b0x Y
b0x00 N
b0x00 q
b1 =
b1 T
b1 h
b1 &"
b1 7
b1 \
b1 b
b1 ,"
b1 ;
b1 J
b1 f
b1 ("
b0xx00 +
b0xx00 G
b0xx00 _
b1000 #"
b1000000000000100010011 6
b1000000000000100010011 !"
b1000000000000100010011 2"
b1100 5
b1100 ""
b1100 1"
b10000 3
b10000 0"
b10000 6"
b10000 7"
b10000 9"
b1100000000000110010011 4
b1100000000000110010011 /"
b1100000000000110010011 8"
1!
#50000
0!
#55000
b0x0 Y
b10100 3
b10100 0"
b10100 6"
b10100 7"
b1100000000000110010011 6
b1100000000000110010011 !"
b1100000000000110010011 2"
b10000 5
b10000 ""
b10000 1"
b10 =
b10 T
b10 h
b10 &"
b10 7
b10 \
b10 b
b10 ,"
b10 ;
b10 J
b10 f
b10 ("
b1100 #"
b1 u
b1 x
b1 |
b0xx00 q
b1 A
b1 Q
b1 [
b1 ="
bx L
b0xx00 N
bx .
bx E"
bx M"
bx >"
b10100 9"
b10000000000001000010011 4
b10000000000001000010011 /"
b10000000000001000010011 8"
1!
#60000
0!
#65000
b0xx Y
bx H"
b0x 0
b0x }
b0x G"
b0x O"
b1 C"
b10 A
b10 Q
b10 [
b10 ="
b10 u
b10 x
b10 |
b11 =
b11 T
b11 h
b11 &"
b11 7
b11 \
b11 b
b11 ,"
b11 ;
b11 J
b11 f
b11 ("
b0xxx00 +
b0xxx00 G
b0xxx00 _
b10000 #"
b10000000000001000010011 6
b10000000000001000010011 !"
b10000000000001000010011 2"
b10100 5
b10100 ""
b10100 1"
b11000 3
b11000 0"
b11000 6"
b11000 7"
b11000 9"
b10100000000001010010011 4
b10100000000001010010011 /"
b10100000000001010010011 8"
1!
#70000
0!
#75000
b0x00 Y
b11100 3
b11100 0"
b11100 6"
b11100 7"
b10100000000001010010011 6
b10100000000001010010011 !"
b10100000000001010010011 2"
b11000 5
b11000 ""
b11000 1"
b100 =
b100 T
b100 h
b100 &"
b100 7
b100 \
b100 b
b100 ,"
b100 ;
b100 J
b100 f
b100 ("
b10100 #"
b11 u
b11 x
b11 |
b0xxx00 q
b11 A
b11 Q
b11 [
b11 ="
b0xxx00 N
b0xx 0
b0xx }
b0xx G"
b0xx O"
b10 C"
b0x L"
b11100 9"
b11000000000001100010011 4
b11000000000001100010011 /"
b11000000000001100010011 8"
1!
#80000
0!
#85000
b0x0x Y
b0xx L"
b11 C"
b100 A
b100 Q
b100 [
b100 ="
b100 u
b100 x
b100 |
b101 =
b101 T
b101 h
b101 &"
b101 7
b101 \
b101 b
b101 ,"
b101 ;
b101 J
b101 f
b101 ("
b11000 #"
b11000000000001100010011 6
b11000000000001100010011 !"
b11000000000001100010011 2"
b11100 5
b11100 ""
b11100 1"
b100000 3
b100000 0"
b100000 6"
b100000 7"
b100000 9"
b11100000000001110010011 4
b11100000000001110010011 /"
b11100000000001110010011 8"
1!
#90000
0!
#95000
b0xx0 Y
b100100 3
b100100 0"
b100100 6"
b100100 7"
b11100000000001110010011 6
b11100000000001110010011 !"
b11100000000001110010011 2"
b100000 5
b100000 ""
b100000 1"
b110 =
b110 T
b110 h
b110 &"
b110 7
b110 \
b110 b
b110 ,"
b110 ;
b110 J
b110 f
b110 ("
b11100 #"
b101 u
b101 x
b101 |
b101 A
b101 Q
b101 [
b101 ="
b0xxx 0
b0xxx }
b0xxx G"
b0xxx O"
b100 C"
b100100 9"
b100000000000010000010011 4
b100000000000010000010011 /"
b100000000000010000010011 8"
1!
#100000
0!
#105000
b0xxx Y
b0xxx L"
b101 C"
b110 A
b110 Q
b110 [
b110 ="
b110 u
b110 x
b110 |
b111 =
b111 T
b111 h
b111 &"
b111 7
b111 \
b111 b
b111 ,"
b111 ;
b111 J
b111 f
b111 ("
b0xxxx00 +
b0xxxx00 G
b0xxxx00 _
b100000 #"
b100000000000010000010011 6
b100000000000010000010011 !"
b100000000000010000010011 2"
b100100 5
b100100 ""
b100100 1"
b101000 3
b101000 0"
b101000 6"
b101000 7"
b101000 9"
b100100000000010010010011 4
b100100000000010010010011 /"
b100100000000010010010011 8"
1!
#110000
0!
#115000
b0x000 Y
b101100 3
b101100 0"
b101100 6"
b101100 7"
b100100000000010010010011 6
b100100000000010010010011 !"
b100100000000010010010011 2"
b101000 5
b101000 ""
b101000 1"
b1000 =
b1000 T
b1000 h
b1000 &"
b1000 7
b1000 \
b1000 b
b1000 ,"
b1000 ;
b1000 J
b1000 f
b1000 ("
b100100 #"
b111 u
b111 x
b111 |
b0xxxx00 q
b111 A
b111 Q
b111 [
b111 ="
b0xxxx00 N
b110 C"
b101100 9"
b101000000000010100010011 4
b101000000000010100010011 /"
b101000000000010100010011 8"
1!
#120000
0!
#125000
b0x00x Y
b111 C"
b1000 A
b1000 Q
b1000 [
b1000 ="
b1000 u
b1000 x
b1000 |
b1001 =
b1001 T
b1001 h
b1001 &"
b1001 7
b1001 \
b1001 b
b1001 ,"
b1001 ;
b1001 J
b1001 f
b1001 ("
b101000 #"
b101000000000010100010011 6
b101000000000010100010011 !"
b101000000000010100010011 2"
b101100 5
b101100 ""
b101100 1"
b110000 3
b110000 0"
b110000 6"
b110000 7"
b110000 9"
b101100000000010110010011 4
b101100000000010110010011 /"
b101100000000010110010011 8"
1!
#130000
0!
#135000
b0x0x0 Y
b110100 3
b110100 0"
b110100 6"
b110100 7"
b101100000000010110010011 6
b101100000000010110010011 !"
b101100000000010110010011 2"
b110000 5
b110000 ""
b110000 1"
b1010 =
b1010 T
b1010 h
b1010 &"
b1010 7
b1010 \
b1010 b
b1010 ,"
b1010 ;
b1010 J
b1010 f
b1010 ("
b101100 #"
b1001 u
b1001 x
b1001 |
b1001 A
b1001 Q
b1001 [
b1001 ="
b0xxxx 0
b0xxxx }
b0xxxx G"
b0xxxx O"
b1000 C"
b110100 9"
b110000000000011000010011 4
b110000000000011000010011 /"
b110000000000011000010011 8"
1!
#140000
0!
#145000
b0x0xx Y
b0xxxx L"
b1001 C"
b1010 A
b1010 Q
b1010 [
b1010 ="
b1010 u
b1010 x
b1010 |
b1011 =
b1011 T
b1011 h
b1011 &"
b1011 7
b1011 \
b1011 b
b1011 ,"
b1011 ;
b1011 J
b1011 f
b1011 ("
b110000 #"
b110000000000011000010011 6
b110000000000011000010011 !"
b110000000000011000010011 2"
b110100 5
b110100 ""
b110100 1"
b111000 3
b111000 0"
b111000 6"
b111000 7"
b111000 9"
b110100000000011010010011 4
b110100000000011010010011 /"
b110100000000011010010011 8"
1!
#150000
0!
#155000
b0xx00 Y
b111100 3
b111100 0"
b111100 6"
b111100 7"
b110100000000011010010011 6
b110100000000011010010011 !"
b110100000000011010010011 2"
b111000 5
b111000 ""
b111000 1"
b1100 =
b1100 T
b1100 h
b1100 &"
b1100 7
b1100 \
b1100 b
b1100 ,"
b1100 ;
b1100 J
b1100 f
b1100 ("
b110100 #"
b1011 u
b1011 x
b1011 |
b1011 A
b1011 Q
b1011 [
b1011 ="
b1010 C"
b111100 9"
b111000000000011100010011 4
b111000000000011100010011 /"
b111000000000011100010011 8"
1!
#160000
0!
#165000
b0xx0x Y
b1011 C"
b1100 A
b1100 Q
b1100 [
b1100 ="
b1100 u
b1100 x
b1100 |
b1101 =
b1101 T
b1101 h
b1101 &"
b1101 7
b1101 \
b1101 b
b1101 ,"
b1101 ;
b1101 J
b1101 f
b1101 ("
b111000 #"
b111000000000011100010011 6
b111000000000011100010011 !"
b111000000000011100010011 2"
b111100 5
b111100 ""
b111100 1"
b1000000 3
b1000000 0"
b1000000 6"
b1000000 7"
b1000000 9"
b111100000000011110010011 4
b111100000000011110010011 /"
b111100000000011110010011 8"
1!
#170000
0!
#175000
b0xxx0 Y
b1000100 3
b1000100 0"
b1000100 6"
b1000100 7"
b111100000000011110010011 6
b111100000000011110010011 !"
b111100000000011110010011 2"
b1000000 5
b1000000 ""
b1000000 1"
b1110 =
b1110 T
b1110 h
b1110 &"
b1110 7
b1110 \
b1110 b
b1110 ,"
b1110 ;
b1110 J
b1110 f
b1110 ("
b111100 #"
b1101 u
b1101 x
b1101 |
b1101 A
b1101 Q
b1101 [
b1101 ="
b1100 C"
b1000100 9"
b1000000000000100000010011 4
b1000000000000100000010011 /"
b1000000000000100000010011 8"
1!
#180000
0!
#185000
b0xxxx Y
b1101 C"
b1110 A
b1110 Q
b1110 [
b1110 ="
b1110 u
b1110 x
b1110 |
b1111 =
b1111 T
b1111 h
b1111 &"
b1111 7
b1111 \
b1111 b
b1111 ,"
b1111 ;
b1111 J
b1111 f
b1111 ("
b0xxxxx00 +
b0xxxxx00 G
b0xxxxx00 _
b1000000 #"
b1000000000000100000010011 6
b1000000000000100000010011 !"
b1000000000000100000010011 2"
b1000100 5
b1000100 ""
b1000100 1"
b1001000 3
b1001000 0"
b1001000 6"
b1001000 7"
b1001000 9"
b1000100000000100010010011 4
b1000100000000100010010011 /"
b1000100000000100010010011 8"
1!
#190000
0!
#195000
b0x0000 Y
b1001100 3
b1001100 0"
b1001100 6"
b1001100 7"
b1000100000000100010010011 6
b1000100000000100010010011 !"
b1000100000000100010010011 2"
b1001000 5
b1001000 ""
b1001000 1"
b10000 =
b10000 T
b10000 h
b10000 &"
b10000 7
b10000 \
b10000 b
b10000 ,"
b10000 ;
b10000 J
b10000 f
b10000 ("
b1000100 #"
b1111 u
b1111 x
b1111 |
b0xxxxx00 q
b1111 A
b1111 Q
b1111 [
b1111 ="
b0xxxxx00 N
b1110 C"
b1001100 9"
b1001000000000100100010011 4
b1001000000000100100010011 /"
b1001000000000100100010011 8"
1!
#200000
0!
#205000
b0x000x Y
b1111 C"
b10000 A
b10000 Q
b10000 [
b10000 ="
b10000 u
b10000 x
b10000 |
b10001 =
b10001 T
b10001 h
b10001 &"
b10001 7
b10001 \
b10001 b
b10001 ,"
b10001 ;
b10001 J
b10001 f
b10001 ("
b1001000 #"
b1001000000000100100010011 6
b1001000000000100100010011 !"
b1001000000000100100010011 2"
b1001100 5
b1001100 ""
b1001100 1"
b1010000 3
b1010000 0"
b1010000 6"
b1010000 7"
b1010000 9"
b1001100000000100110010011 4
b1001100000000100110010011 /"
b1001100000000100110010011 8"
1!
#210000
0!
#215000
b0x00x0 Y
b1010100 3
b1010100 0"
b1010100 6"
b1010100 7"
b1001100000000100110010011 6
b1001100000000100110010011 !"
b1001100000000100110010011 2"
b1010000 5
b1010000 ""
b1010000 1"
b10010 =
b10010 T
b10010 h
b10010 &"
b10010 7
b10010 \
b10010 b
b10010 ,"
b10010 ;
b10010 J
b10010 f
b10010 ("
b1001100 #"
b10001 u
b10001 x
b10001 |
b10001 A
b10001 Q
b10001 [
b10001 ="
bx 0
bx }
bx G"
bx O"
b10000 C"
b1010100 9"
b1010000000000101000010011 4
b1010000000000101000010011 /"
b1010000000000101000010011 8"
1!
#220000
0!
#225000
b0x00xx Y
bx L"
b10001 C"
b10010 A
b10010 Q
b10010 [
b10010 ="
b10010 u
b10010 x
b10010 |
b10011 =
b10011 T
b10011 h
b10011 &"
b10011 7
b10011 \
b10011 b
b10011 ,"
b10011 ;
b10011 J
b10011 f
b10011 ("
b1010000 #"
b1010000000000101000010011 6
b1010000000000101000010011 !"
b1010000000000101000010011 2"
b1010100 5
b1010100 ""
b1010100 1"
b1011000 3
b1011000 0"
b1011000 6"
b1011000 7"
b1011000 9"
b1010100000000101010010011 4
b1010100000000101010010011 /"
b1010100000000101010010011 8"
1!
#230000
0!
#235000
b0x0x00 Y
b1011100 3
b1011100 0"
b1011100 6"
b1011100 7"
b1010100000000101010010011 6
b1010100000000101010010011 !"
b1010100000000101010010011 2"
b1011000 5
b1011000 ""
b1011000 1"
b10100 =
b10100 T
b10100 h
b10100 &"
b10100 7
b10100 \
b10100 b
b10100 ,"
b10100 ;
b10100 J
b10100 f
b10100 ("
b1010100 #"
b10011 u
b10011 x
b10011 |
b10011 A
b10011 Q
b10011 [
b10011 ="
b10010 C"
b1011100 9"
b1011000000000101100010011 4
b1011000000000101100010011 /"
b1011000000000101100010011 8"
1!
#240000
0!
#245000
b0x0x0x Y
b10011 C"
b10100 A
b10100 Q
b10100 [
b10100 ="
b10100 u
b10100 x
b10100 |
b10101 =
b10101 T
b10101 h
b10101 &"
b10101 7
b10101 \
b10101 b
b10101 ,"
b10101 ;
b10101 J
b10101 f
b10101 ("
b1011000 #"
b1011000000000101100010011 6
b1011000000000101100010011 !"
b1011000000000101100010011 2"
b1011100 5
b1011100 ""
b1011100 1"
b1100000 3
b1100000 0"
b1100000 6"
b1100000 7"
b1100000 9"
b1011100000000101110010011 4
b1011100000000101110010011 /"
b1011100000000101110010011 8"
1!
#250000
0!
#255000
b0x0xx0 Y
b1100100 3
b1100100 0"
b1100100 6"
b1100100 7"
b1011100000000101110010011 6
b1011100000000101110010011 !"
b1011100000000101110010011 2"
b1100000 5
b1100000 ""
b1100000 1"
b10110 =
b10110 T
b10110 h
b10110 &"
b10110 7
b10110 \
b10110 b
b10110 ,"
b10110 ;
b10110 J
b10110 f
b10110 ("
b1011100 #"
b10101 u
b10101 x
b10101 |
b10101 A
b10101 Q
b10101 [
b10101 ="
b10100 C"
b1100100 9"
b1100000000000110000010011 4
b1100000000000110000010011 /"
b1100000000000110000010011 8"
1!
#260000
0!
#265000
b0x0xxx Y
b10101 C"
b10110 A
b10110 Q
b10110 [
b10110 ="
b10110 u
b10110 x
b10110 |
b10111 =
b10111 T
b10111 h
b10111 &"
b10111 7
b10111 \
b10111 b
b10111 ,"
b10111 ;
b10111 J
b10111 f
b10111 ("
b1100000 #"
b1100000000000110000010011 6
b1100000000000110000010011 !"
b1100000000000110000010011 2"
b1100100 5
b1100100 ""
b1100100 1"
b1101000 3
b1101000 0"
b1101000 6"
b1101000 7"
b1101000 9"
b1100100000000110010010011 4
b1100100000000110010010011 /"
b1100100000000110010010011 8"
1!
#270000
0!
#275000
b0xx000 Y
b1101100 3
b1101100 0"
b1101100 6"
b1101100 7"
b1100100000000110010010011 6
b1100100000000110010010011 !"
b1100100000000110010010011 2"
b1101000 5
b1101000 ""
b1101000 1"
b11000 =
b11000 T
b11000 h
b11000 &"
b11000 7
b11000 \
b11000 b
b11000 ,"
b11000 ;
b11000 J
b11000 f
b11000 ("
b1100100 #"
b10111 u
b10111 x
b10111 |
b10111 A
b10111 Q
b10111 [
b10111 ="
b10110 C"
b1101100 9"
b1101000000000110100010011 4
b1101000000000110100010011 /"
b1101000000000110100010011 8"
1!
#280000
0!
#285000
b0xx00x Y
b10111 C"
b11000 A
b11000 Q
b11000 [
b11000 ="
b11000 u
b11000 x
b11000 |
b11001 =
b11001 T
b11001 h
b11001 &"
b11001 7
b11001 \
b11001 b
b11001 ,"
b11001 ;
b11001 J
b11001 f
b11001 ("
b1101000 #"
b1101000000000110100010011 6
b1101000000000110100010011 !"
b1101000000000110100010011 2"
b1101100 5
b1101100 ""
b1101100 1"
b1110000 3
b1110000 0"
b1110000 6"
b1110000 7"
b1110000 9"
b1101100000000110110010011 4
b1101100000000110110010011 /"
b1101100000000110110010011 8"
1!
#290000
0!
#295000
b0xx0x0 Y
b1110100 3
b1110100 0"
b1110100 6"
b1110100 7"
b1101100000000110110010011 6
b1101100000000110110010011 !"
b1101100000000110110010011 2"
b1110000 5
b1110000 ""
b1110000 1"
b11010 =
b11010 T
b11010 h
b11010 &"
b11010 7
b11010 \
b11010 b
b11010 ,"
b11010 ;
b11010 J
b11010 f
b11010 ("
b1101100 #"
b11001 u
b11001 x
b11001 |
b11001 A
b11001 Q
b11001 [
b11001 ="
b11000 C"
b1110100 9"
b1110000000000111000010011 4
b1110000000000111000010011 /"
b1110000000000111000010011 8"
1!
#300000
0!
#305000
b0xx0xx Y
b11001 C"
b11010 A
b11010 Q
b11010 [
b11010 ="
b11010 u
b11010 x
b11010 |
b11011 =
b11011 T
b11011 h
b11011 &"
b11011 7
b11011 \
b11011 b
b11011 ,"
b11011 ;
b11011 J
b11011 f
b11011 ("
b1110000 #"
b1110000000000111000010011 6
b1110000000000111000010011 !"
b1110000000000111000010011 2"
b1110100 5
b1110100 ""
b1110100 1"
b1111000 3
b1111000 0"
b1111000 6"
b1111000 7"
b1111000 9"
b1110100000000111010010011 4
b1110100000000111010010011 /"
b1110100000000111010010011 8"
1!
#310000
0!
#315000
b0xxx00 Y
b1111100 3
b1111100 0"
b1111100 6"
b1111100 7"
b1110100000000111010010011 6
b1110100000000111010010011 !"
b1110100000000111010010011 2"
b1111000 5
b1111000 ""
b1111000 1"
b11100 =
b11100 T
b11100 h
b11100 &"
b11100 7
b11100 \
b11100 b
b11100 ,"
b11100 ;
b11100 J
b11100 f
b11100 ("
b1110100 #"
b11011 u
b11011 x
b11011 |
b11011 A
b11011 Q
b11011 [
b11011 ="
b11010 C"
b1111100 9"
b1111000000000111100010011 4
b1111000000000111100010011 /"
b1111000000000111100010011 8"
1!
#320000
0!
#325000
b0xxx0x Y
b11011 C"
b11100 A
b11100 Q
b11100 [
b11100 ="
b11100 u
b11100 x
b11100 |
b11101 =
b11101 T
b11101 h
b11101 &"
b11101 7
b11101 \
b11101 b
b11101 ,"
b11101 ;
b11101 J
b11101 f
b11101 ("
b1111000 #"
b1111000000000111100010011 6
b1111000000000111100010011 !"
b1111000000000111100010011 2"
b1111100 5
b1111100 ""
b1111100 1"
b10000000 3
b10000000 0"
b10000000 6"
b10000000 7"
b10000000 9"
b1111100000000111110010011 4
b1111100000000111110010011 /"
b1111100000000111110010011 8"
1!
#330000
0!
#335000
b0xxxx0 Y
b10000100 3
b10000100 0"
b10000100 6"
b10000100 7"
b1111100000000111110010011 6
b1111100000000111110010011 !"
b1111100000000111110010011 2"
b10000000 5
b10000000 ""
b10000000 1"
b11110 =
b11110 T
b11110 h
b11110 &"
b11110 7
b11110 \
b11110 b
b11110 ,"
b11110 ;
b11110 J
b11110 f
b11110 ("
b1111100 #"
b11101 u
b11101 x
b11101 |
b11101 A
b11101 Q
b11101 [
b11101 ="
b11100 C"
b10000100 9"
b100010000000110110011 4
b100010000000110110011 /"
b100010000000110110011 8"
1!
#340000
0!
#345000
b0xxxxx Y
b11101 C"
b11110 A
b11110 Q
b11110 [
b11110 ="
b11110 u
b11110 x
b11110 |
b11111 =
b11111 T
b11111 h
b11111 &"
b11111 7
b11111 \
b11111 b
b11111 ,"
b11111 ;
b11111 J
b11111 f
b11111 ("
b0xxxxxx00 +
b0xxxxxx00 G
b0xxxxxx00 _
b10000000 #"
b100010000000110110011 6
b100010000000110110011 !"
b100010000000110110011 2"
b10000100 5
b10000100 ""
b10000100 1"
b10001000 3
b10001000 0"
b10001000 6"
b10001000 7"
b10001000 9"
b1000000001000001000000010110011 4
b1000000001000001000000010110011 /"
b1000000001000001000000010110011 8"
1!
#350000
0!
